sim.vcd
$date
	Mon Nov 28 22:50:35 2022
$end
$version
	Icarus Verilog
$end
$timescale
	10ps
$end
$scope module riscv_tb $end
$var reg 1 ! clk $end
$var reg 1 " rstn $end
$var integer 32 # i [31:0] $end
$scope module my_cpu $end
$var wire 32 $ alu_in1 [31:0] $end
$var wire 1 ! clk $end
$var wire 32 % instruction [31:0] $end
$var wire 1 " rstn $end
$var wire 1 & select_jump $end
$var wire 32 ' write_data [31:0] $end
$var wire 1 ( taken $end
$var wire 1 ) sext $end
$var wire 32 * rs2_out [31:0] $end
$var wire 5 + rs2 [4:0] $end
$var wire 32 , rs1_out [31:0] $end
$var wire 5 - rs1 [4:0] $end
$var wire 1 . reg_write $end
$var wire 32 / read_data [31:0] $end
$var wire 5 0 rd [4:0] $end
$var wire 32 1 pc_plus_4 [31:0] $end
$var wire 7 2 opcode [6:0] $end
$var wire 32 3 next_pc_cand [31:0] $end
$var wire 1 4 mem_write $end
$var wire 1 5 mem_to_reg $end
$var wire 1 6 mem_read $end
$var wire 2 7 maskmode [1:0] $end
$var wire 2 8 jump [1:0] $end
$var wire 32 9 immediate [31:0] $end
$var wire 7 : funct7 [6:0] $end
$var wire 3 ; funct3 [2:0] $end
$var wire 32 < branch_target [31:0] $end
$var wire 1 = branch $end
$var wire 1 > alu_src $end
$var wire 32 ? alu_out [31:0] $end
$var wire 2 @ alu_op [1:0] $end
$var wire 32 A alu_in2 [31:0] $end
$var wire 4 B alu_func [3:0] $end
$var wire 1 C alu_check $end
$var wire 32 D NEXT_PC [31:0] $end
$var reg 32 E PC [31:0] $end
$scope module in_b_mux $end
$var wire 1 > select $end
$var wire 32 F in2 [31:0] $end
$var wire 32 G in1 [31:0] $end
$var reg 32 H out [31:0] $end
$upscope $end
$scope module m_ALU $end
$var wire 32 I in_a [31:0] $end
$var wire 32 J in_b [31:0] $end
$var wire 4 K alu_func [3:0] $end
$var reg 1 C check $end
$var reg 32 L out [31:0] $end
$upscope $end
$scope module m_ALU_control $end
$var wire 3 M funct3 [2:0] $end
$var wire 7 N funct7 [6:0] $end
$var wire 4 O funct [3:0] $end
$var wire 2 P alu_op [1:0] $end
$var reg 4 Q alu_func [3:0] $end
$upscope $end
$scope module m_branch_control $end
$var wire 1 C check $end
$var wire 1 = branch $end
$var reg 1 ( taken $end
$upscope $end
$scope module m_control $end
$var wire 7 R opcode [6:0] $end
$var wire 1 . reg_write $end
$var wire 1 4 mem_write $end
$var wire 1 5 mem_to_reg $end
$var wire 1 6 mem_read $end
$var wire 2 S jump [1:0] $end
$var wire 1 = branch $end
$var wire 1 > alu_src $end
$var wire 2 T alu_op [1:0] $end
$var reg 10 U controls [9:0] $end
$upscope $end
$scope module m_data_memory $end
$var wire 32 V address [31:0] $end
$var wire 1 ! clk $end
$var wire 2 W maskmode [1:0] $end
$var wire 1 6 mem_read $end
$var wire 1 4 mem_write $end
$var wire 1 ) sext $end
$var wire 32 X write_data [31:0] $end
$var wire 5 Y address_internal [4:0] $end
$var reg 32 Z read_data [31:0] $end
$var reg 32 [ write_data_internal [31:0] $end
$upscope $end
$scope module m_imm_generator $end
$var wire 32 \ inst [31:0] $end
$var wire 32 ] instruction [31:0] $end
$var wire 7 ^ opcode [6:0] $end
$var reg 32 _ immediate [31:0] $end
$upscope $end
$scope module m_next_pc_adder $end
$var wire 32 ` in1 [31:0] $end
$var wire 32 a in2 [31:0] $end
$var reg 32 b out [31:0] $end
$upscope $end
$scope module m_register_file $end
$var wire 1 ! clk $end
$var wire 32 c data1_o [31:0] $end
$var wire 32 d data2_o [31:0] $end
$var wire 5 e rd [4:0] $end
$var wire 1 . reg_write $end
$var wire 5 f rs1 [4:0] $end
$var wire 5 g rs2 [4:0] $end
$var wire 32 h write_data_i [31:0] $end
$upscope $end
$scope module next_pc_mux $end
$var wire 32 i in1 [31:0] $end
$var wire 1 ( select $end
$var wire 32 j in2 [31:0] $end
$var reg 32 k out [31:0] $end
$upscope $end
$scope module pc_branch_mux $end
$var wire 32 l in2 [31:0] $end
$var wire 1 m select $end
$var wire 32 n in1 [31:0] $end
$var reg 32 o out [31:0] $end
$upscope $end
$scope module pc_imm_adder $end
$var wire 32 p in1 [31:0] $end
$var wire 32 q in2 [31:0] $end
$var reg 32 r out [31:0] $end
$upscope $end
$scope module write_data_mux $end
$var wire 32 s in1 [31:0] $end
$var wire 32 t in2 [31:0] $end
$var wire 32 u in3 [31:0] $end
$var wire 2 v select [1:0] $end
$var reg 32 w out [31:0] $end
$upscope $end
$upscope $end
$upscope $end
$enddefinitions $end
#0
$dumpvars
bx w
bx v
bx u
b0 t
bx s
bx r
bx q
bx p
bx o
bx n
xm
bx l
bx k
bx j
bx i
bx h
bx g
bx f
bx e
bx d
bx c
bx b
b100 a
bx `
bx _
bx ^
bx ]
bx \
b0 [
b0 Z
bx Y
bx X
bx W
bx V
bx U
bx T
bx S
bx R
bx Q
bx P
bx O
bx N
bx M
bx L
bx K
bx J
bx I
bx H
bx G
bx F
bx E
bx D
xC
bx B
bx A
bx @
bx ?
x>
x=
bx <
bx ;
bx :
bx 9
bx 8
bx 7
x6
x5
x4
bx 3
bx 2
bx 1
bx 0
b0 /
x.
bx -
bx ,
bx +
bx *
x)
x(
bx '
x&
bx %
bx $
b1000000 #
0"
0!
$end
#1000
b1100 3
b1100 j
b1100 o
b1100 D
b1100 k
b0x v
0m
1&
b0 A
b0 H
b0 J
1(
b0 8
b0 S
1=
06
b1 @
b1 P
b1 T
04
0>
0.
1C
b0 Y
b10x01000 U
b10 B
b10 K
b10 Q
b0 ?
b0 L
b0 V
b0 l
b0 s
b1100 <
b1100 n
b1100 r
b1100011 2
b1100011 R
b1100011 ^
b0 :
b0 N
b0 O
b0 ;
b0 M
b0 $
b0 I
b0 ,
b0 c
b0 -
b0 f
b0 *
b0 G
b0 X
b0 d
b0 +
b0 g
b1100 0
b1100 e
b0 7
b0 W
0)
b1100 9
b1100 F
b1100 _
b1100 q
b11001100011 \
b11001100011 %
b11001100011 ]
b100 1
b100 b
b100 i
b100 u
b0 E
b0 `
b0 p
1!
#2000
0!
#3000
1!
#4000
0!
#5000
1!
#6000
0!
1"
#7000
b11111 Y
0&
b11111111111111111111111111111111 '
b11111111111111111111111111111111 h
b11111111111111111111111111111111 w
b1 B
b1 K
b1 Q
0(
0=
b0 v
05
b10 @
b10 P
b10 T
1.
1C
b10001 U
b1000 O
b11111111111111111111111111111111 ?
b11111111111111111111111111111111 L
b11111111111111111111111111111111 V
b11111111111111111111111111111111 l
b11111111111111111111111111111111 s
b10 [
b10 A
b10 H
b10 J
b110011 2
b110011 R
b110011 ^
b100000 :
b100000 N
b1 $
b1 I
b1 ,
b1 c
b1 -
b1 f
b10 *
b10 G
b10 X
b10 d
b10 +
b10 g
b10001 0
b10001 e
b0 9
b0 F
b0 _
b0 q
b10000 D
b10000 k
b1100 3
b1100 j
b1100 o
b1000000001000001000100010110011 \
b1000000001000001000100010110011 %
b1000000001000001000100010110011 ]
b10000 1
b10000 b
b10000 i
b10000 u
b1100 <
b1100 n
b1100 r
b1100 E
b1100 `
b1100 p
1!
#8000
0!
#9000
1&
b10 v
1m
1(
b1 Y
b11 8
b11 S
1=
b0 @
b0 P
b0 T
1>
b10100 '
b10100 h
b10100 w
b1110000011 U
b100 9
b100 F
b100 _
b100 q
b0 B
b0 K
b0 Q
b0 O
b100 ?
b100 L
b100 V
b100 l
b100 s
b100 A
b100 H
b100 J
b100 [
b1100111 2
b1100111 R
b1100111 ^
b0 :
b0 N
b0 $
b0 I
b0 ,
b0 c
b0 -
b0 f
b100 *
b100 G
b100 X
b100 d
b100 +
b100 g
b10011 0
b10011 e
b100 D
b100 k
b100 3
b100 j
b100 o
b10000000000100111100111 \
b10000000000100111100111 %
b10000000000100111100111 ]
b10100 1
b10100 b
b10100 i
b10100 u
b10100 <
b10100 n
b10100 r
b10000 E
b10000 `
b10000 p
1!
#10000
0!
#11000
0&
b0 v
0m
0(
b1000 D
b1000 k
b0 8
b0 S
0=
b10 @
b10 P
b10 T
0>
b0 Y
b100 3
b100 j
b100 o
b10001 U
b11 ?
b11 L
b11 V
b11 l
b11 s
b10 [
b10 A
b10 H
b10 J
b110011 2
b110011 R
b110011 ^
b1 $
b1 I
b1 ,
b1 c
b1 -
b1 f
b10 *
b10 G
b10 X
b10 d
b10 +
b10 g
b10000 0
b10000 e
b0 9
b0 F
b0 _
b0 q
b11 '
b11 h
b11 w
b1000001000100000110011 \
b1000001000100000110011 %
b1000001000100000110011 ]
b1000 1
b1000 b
b1000 i
b1000 u
b100 <
b100 n
b100 r
b100 E
b100 `
b100 p
1!
#12000
0!
#13000
1&
1(
b11111 Y
1C
1=
b0x v
x5
b1 @
b1 P
b1 T
0.
bx '
bx h
bx w
b10x01000 U
b1100 9
b1100 F
b1100 _
b1100 q
b1 B
b1 K
b1 Q
b11111111111111111111111111111111 ?
b11111111111111111111111111111111 L
b11111111111111111111111111111111 V
b11111111111111111111111111111111 l
b11111111111111111111111111111111 s
b1 A
b1 H
b1 J
b1 [
b1100011 2
b1100011 R
b1100011 ^
b1 O
b1 ;
b1 M
b0 $
b0 I
b0 ,
b0 c
b0 -
b0 f
b1 *
b1 G
b1 X
b1 d
b1 +
b1 g
b1100 0
b1100 e
b1 7
b1 W
b10100 D
b10100 k
b10100 3
b10100 j
b10100 o
b100000001011001100011 \
b100000001011001100011 %
b100000001011001100011 ]
b1100 1
b1100 b
b1100 i
b1100 u
b10100 <
b10100 n
b10100 r
b1000 E
b1000 `
b1000 p
1!
#14000
0!
#15000
0&
0(
b1 Y
b111 '
b111 h
b111 w
0=
b0 v
05
b10 @
b10 P
b10 T
1.
1C
b111 ?
b111 L
b111 V
b111 l
b111 s
b10001 U
b0 B
b0 K
b0 Q
b100 [
b100 A
b100 H
b100 J
b110011 2
b110011 R
b110011 ^
b0 O
b0 ;
b0 M
b11 $
b11 I
b11 ,
b11 c
b11 -
b11 f
b100 *
b100 G
b100 X
b100 d
b100 +
b100 g
b10010 0
b10010 e
b0 7
b0 W
b0 9
b0 F
b0 _
b0 q
b11000 D
b11000 k
b10100 3
b10100 j
b10100 o
b10000011000100100110011 \
b10000011000100100110011 %
b10000011000100100110011 ]
b11000 1
b11000 b
b11000 i
b11000 u
b10100 <
b10100 n
b10100 r
b10100 E
b10100 `
b10100 p
1!
#16000
0!
#17000
bx Y
b10 v
1&
1(
bx A
bx H
bx J
b1 8
b1 S
1=
b0 @
b0 P
b0 T
x>
b11100 '
b11100 h
b11100 w
b1100000x1 U
b100 9
b100 F
b100 _
b100 q
bx ?
bx L
bx V
bx l
bx s
b1101111 2
b1101111 R
b1101111 ^
b0 $
b0 I
b0 ,
b0 c
b0 -
b0 f
b10100 0
b10100 e
b11100 D
b11100 k
b11100 3
b11100 j
b11100 o
b10000000000101001101111 \
b10000000000101001101111 %
b10000000000101001101111 ]
b11100 1
b11100 b
b11100 i
b11100 u
b11100 <
b11100 n
b11100 r
b11000 E
b11000 `
b11000 p
1!
#18000
0!
#19000
b1 Y
b110 ?
b110 L
b110 V
b110 l
b110 s
b0 v
0&
0(
b10 A
b10 H
b10 J
b0 8
b0 S
0=
b10 @
b10 P
b10 T
0>
b10001 U
b10 [
b110011 2
b110011 R
b110011 ^
b100 $
b100 I
b100 ,
b100 c
b100 -
b100 f
b10 *
b10 G
b10 X
b10 d
b10 +
b10 g
b10101 0
b10101 e
b0 9
b0 F
b0 _
b0 q
b100000 D
b100000 k
b110 '
b110 h
b110 w
b11100 3
b11100 j
b11100 o
b1000100000101010110011 \
b1000100000101010110011 %
b1000100000101010110011 ]
b100000 1
b100000 b
b100000 i
b100000 u
b11100 <
b11100 n
b11100 r
b11100 E
b11100 `
b11100 p
1!
#20000
0!
#21000
b11 @
b11 P
b11 T
1>
b0 Y
b0 '
b0 h
b0 w
b11011 U
b0 ?
b0 L
b0 V
b0 l
b0 s
b0 A
b0 H
b0 J
b0 [
b10011 2
b10011 R
b10011 ^
b0 $
b0 I
b0 ,
b0 c
b0 -
b0 f
b0 *
b0 G
b0 X
b0 d
b0 +
b0 g
b0 0
b0 e
b100100 D
b100100 k
b100000 3
b100000 j
b100000 o
b10011 \
b10011 %
b10011 ]
b100100 1
b100100 b
b100100 i
b100100 u
b100000 <
b100000 n
b100000 r
b100000 E
b100000 `
b100000 p
1!
#22000
0!
#23000
b101000 D
b101000 k
b100100 3
b100100 j
b100100 o
b101000 1
b101000 b
b101000 i
b101000 u
b100100 <
b100100 n
b100100 r
b100100 E
b100100 `
b100100 p
1!
#24000
0!
#25000
b101100 D
b101100 k
b101000 3
b101000 j
b101000 o
b101100 1
b101100 b
b101100 i
b101100 u
b101000 <
b101000 n
b101000 r
b101000 E
b101000 `
b101000 p
1!
#26000
0!
#27000
b110000 D
b110000 k
b101100 3
b101100 j
b101100 o
b110000 1
b110000 b
b110000 i
b110000 u
b101100 <
b101100 n
b101100 r
b101100 E
b101100 `
b101100 p
1!
#28000
0!
#29000
b110100 D
b110100 k
b110000 3
b110000 j
b110000 o
b110100 1
b110100 b
b110100 i
b110100 u
b110000 <
b110000 n
b110000 r
b110000 E
b110000 `
b110000 p
1!
#30000
0!
#31000
b111000 D
b111000 k
b110100 3
b110100 j
b110100 o
b111000 1
b111000 b
b111000 i
b111000 u
b110100 <
b110100 n
b110100 r
b110100 E
b110100 `
b110100 p
1!
#32000
0!
#33000
b111100 D
b111100 k
b111000 3
b111000 j
b111000 o
b111100 1
b111100 b
b111100 i
b111100 u
b111000 <
b111000 n
b111000 r
b111000 E
b111000 `
b111000 p
1!
#34000
0!
#35000
b1000000 D
b1000000 k
b111100 3
b111100 j
b111100 o
b1000000 1
b1000000 b
b1000000 i
b1000000 u
b111100 <
b111100 n
b111100 r
b111100 E
b111100 `
b111100 p
1!
#36000
0!
#37000
1&
1C
b0 Y
1(
bx '
bx h
bx w
b10 B
b10 K
b10 Q
b0 ?
b0 L
b0 V
b0 l
b0 s
1=
b0x v
x5
b1 @
b1 P
b1 T
0>
0.
b0 A
b0 H
b0 J
b10x01000 U
b1100 9
b1100 F
b1100 _
b1100 q
b1100011 2
b1100011 R
b1100011 ^
b1100 0
b1100 e
b1001100 D
b1001100 k
b1001100 3
b1001100 j
b1001100 o
b11001100011 \
b11001100011 %
b11001100011 ]
b1000100 1
b1000100 b
b1000100 i
b1000100 u
b1001100 <
b1001100 n
b1001100 r
b1000000 E
b1000000 `
b1000000 p
1!
#38000
0!
#39000
b11111 Y
0&
b11111111111111111111111111111111 '
b11111111111111111111111111111111 h
b11111111111111111111111111111111 w
b1 B
b1 K
b1 Q
0(
0=
b0 v
05
b10 @
b10 P
b10 T
1.
1C
b10001 U
b1000 O
b11111111111111111111111111111111 ?
b11111111111111111111111111111111 L
b11111111111111111111111111111111 V
b11111111111111111111111111111111 l
b11111111111111111111111111111111 s
b10 [
b10 A
b10 H
b10 J
b110011 2
b110011 R
b110011 ^
b100000 :
b100000 N
b1 $
b1 I
b1 ,
b1 c
b1 -
b1 f
b10 *
b10 G
b10 X
b10 d
b10 +
b10 g
b10001 0
b10001 e
b0 9
b0 F
b0 _
b0 q
b1010000 D
b1010000 k
b1001100 3
b1001100 j
b1001100 o
b1000000001000001000100010110011 \
b1000000001000001000100010110011 %
b1000000001000001000100010110011 ]
b1010000 1
b1010000 b
b1010000 i
b1010000 u
b1001100 <
b1001100 n
b1001100 r
b1001100 E
b1001100 `
b1001100 p
1!
b100000 #
